{
  "endpoint": "/actors",
  "path": "/v1/actors",
  "httpMethods": ["GET", "POST", "PUT", "DELETE"],
  "parameters": {
    "GET": {
      "query": {
        "id": {
          "type": "string",
          "required": false,
          "description": "Unique actor identifier"
        },
        "type": {
          "type": "string",
          "required": false,
          "enum": ["person", "organization", "group", "network"],
          "description": "Filter by actor type"
        },
        "name": {
          "type": "string",
          "required": false,
          "description": "Search by actor name (partial match)"
        },
        "location": {
          "type": "string",
          "required": false,
          "description": "Filter by location (city, country, or region)"
        },
        "tags": {
          "type": "array",
          "items": "string",
          "required": false,
          "description": "Filter by tags"
        },
        "limit": {
          "type": "integer",
          "required": false,
          "default": 20,
          "minimum": 1,
          "maximum": 100,
          "description": "Number of results per page"
        },
        "offset": {
          "type": "integer",
          "required": false,
          "default": 0,
          "minimum": 0,
          "description": "Pagination offset"
        },
        "sort": {
          "type": "string",
          "required": false,
          "enum": ["name", "created_at", "updated_at"],
          "default": "name",
          "description": "Sort field"
        },
        "order": {
          "type": "string",
          "required": false,
          "enum": ["asc", "desc"],
          "default": "asc",
          "description": "Sort order"
        }
      }
    },
    "POST": {
      "body": {
        "type": {
          "type": "string",
          "required": true,
          "enum": ["person", "organization", "group", "network"]
        },
        "name": {
          "type": "string",
          "required": true,
          "minLength": 1,
          "maxLength": 255
        },
        "description": {
          "type": "string",
          "required": false,
          "maxLength": 5000
        },
        "location": {
          "type": "object",
          "required": false,
          "properties": {
            "city": { "type": "string" },
            "country": { "type": "string" },
            "region": { "type": "string" },
            "coordinates": {
              "type": "object",
              "properties": {
                "lat": { "type": "number" },
                "lng": { "type": "number" }
              }
            }
          }
        },
        "tags": {
          "type": "array",
          "items": "string",
          "required": false
        },
        "metadata": {
          "type": "object",
          "required": false,
          "description": "Additional metadata fields"
        }
      }
    },
    "PUT": {
      "query": {
        "id": {
          "type": "string",
          "required": true,
          "description": "Actor ID to update"
        }
      },
      "body": {
        "name": {
          "type": "string",
          "required": false
        },
        "description": {
          "type": "string",
          "required": false
        },
        "location": {
          "type": "object",
          "required": false
        },
        "tags": {
          "type": "array",
          "items": "string",
          "required": false
        },
        "metadata": {
          "type": "object",
          "required": false
        }
      }
    },
    "DELETE": {
      "query": {
        "id": {
          "type": "string",
          "required": true,
          "description": "Actor ID to delete"
        }
      }
    }
  },
  "responseSchema": {
    "GET": {
      "success": {
        "type": "object",
        "properties": {
          "data": {
            "type": "array",
            "items": {
              "$ref": "#/definitions/Actor"
            }
          },
          "pagination": {
            "$ref": "#/definitions/Pagination"
          }
        }
      },
      "definitions": {
        "Actor": {
          "type": "object",
          "properties": {
            "id": { "type": "string" },
            "type": { "type": "string", "enum": ["person", "organization", "group", "network"] },
            "name": { "type": "string" },
            "description": { "type": "string" },
            "location": {
              "type": "object",
              "properties": {
                "city": { "type": "string" },
                "country": { "type": "string" },
                "region": { "type": "string" },
                "coordinates": {
                  "type": "object",
                  "properties": {
                    "lat": { "type": "number" },
                    "lng": { "type": "number" }
                  }
                }
              }
            },
            "tags": { "type": "array", "items": { "type": "string" } },
            "metadata": { "type": "object" },
            "relationships": {
              "type": "object",
              "properties": {
                "organizations": { "type": "integer", "description": "Number of related organizations" },
                "initiatives": { "type": "integer", "description": "Number of related initiatives" },
                "causes": { "type": "integer", "description": "Number of related causes" }
              }
            },
            "created_at": { "type": "string", "format": "date-time" },
            "updated_at": { "type": "string", "format": "date-time" }
          }
        },
        "Pagination": {
          "type": "object",
          "properties": {
            "total": { "type": "integer" },
            "limit": { "type": "integer" },
            "offset": { "type": "integer" },
            "has_more": { "type": "boolean" }
          }
        }
      }
    },
    "POST": {
      "success": {
        "$ref": "#/definitions/Actor"
      }
    },
    "PUT": {
      "success": {
        "$ref": "#/definitions/Actor"
      }
    },
    "DELETE": {
      "success": {
        "type": "object",
        "properties": {
          "message": { "type": "string" },
          "id": { "type": "string" }
        }
      }
    }
  },
  "examples": {
    "request": {
      "GET": {
        "list_actors": "?limit=10&sort=name&order=asc",
        "filter_by_type": "?type=organization&limit=20",
        "search_by_name": "?name=climate&limit=10",
        "filter_by_location": "?location=Berlin&limit=10",
        "filter_by_tags": "?tags=activism,climate&limit=10"
      },
      "POST": {
        "create_actor": {
          "type": "organization",
          "name": "Climate Action Network",
          "description": "Global network of NGOs working on climate change",
          "location": {
            "city": "Berlin",
            "country": "Germany",
            "coordinates": {
              "lat": 52.52,
              "lng": 13.405
            }
          },
          "tags": ["climate", "activism", "network"]
        }
      },
      "PUT": {
        "update_actor": {
          "id": "actor_abc123",
          "name": "Climate Action Network International",
          "tags": ["climate", "activism", "network", "international"]
        }
      }
    },
    "response": {
      "GET": {
        "success": {
          "data": [
            {
              "id": "actor_abc123",
              "type": "organization",
              "name": "Climate Action Network",
              "description": "Global network of NGOs working on climate change",
              "location": {
                "city": "Berlin",
                "country": "Germany",
                "region": "Europe",
                "coordinates": {
                  "lat": 52.52,
                  "lng": 13.405
                }
              },
              "tags": ["climate", "activism", "network"],
              "metadata": {},
              "relationships": {
                "organizations": 5,
                "initiatives": 12,
                "causes": 3
              },
              "created_at": "2024-01-15T10:30:00Z",
              "updated_at": "2024-01-15T10:30:00Z"
            }
          ],
          "pagination": {
            "total": 150,
            "limit": 10,
            "offset": 0,
            "has_more": true
          }
        }
      },
      "POST": {
        "success": {
          "id": "actor_xyz789",
          "type": "organization",
          "name": "Climate Action Network",
          "description": "Global network of NGOs working on climate change",
          "location": {
            "city": "Berlin",
            "country": "Germany",
            "coordinates": {
              "lat": 52.52,
              "lng": 13.405
            }
          },
          "tags": ["climate", "activism", "network"],
          "metadata": {},
          "relationships": {
            "organizations": 0,
            "initiatives": 0,
            "causes": 0
          },
          "created_at": "2024-06-20T14:30:00Z",
          "updated_at": "2024-06-20T14:30:00Z"
        }
      },
      "DELETE": {
        "success": {
          "message": "Actor deleted successfully",
          "id": "actor_abc123"
        }
      }
    }
  },
  "errorCodes": {
    "400": {
      "code": "BAD_REQUEST",
      "description": "Invalid request parameters or malformed request body"
    },
    "401": {
      "code": "UNAUTHORIZED",
      "description": "Authentication required or invalid credentials"
    },
    "403": {
      "code": "FORBIDDEN",
      "description": "Insufficient permissions to perform this action"
    },
    "404": {
      "code": "NOT_FOUND",
      "description": "Actor not found"
    },
    "409": {
      "code": "CONFLICT",
      "description": "Actor with this name already exists"
    },
    "422": {
      "code": "UNPROCESSABLE_ENTITY",
      "description": "Validation error in request body"
    },
    "429": {
      "code": "RATE_LIMIT_EXCEEDED",
      "description": "Too many requests, please retry after specified time"
    },
    "500": {
      "code": "INTERNAL_SERVER_ERROR",
      "description": "Server error occurred"
    }
  }
}
