{
  "endpoint": "/initiatives",
  "path": "/v1/initiatives",
  "httpMethods": ["GET", "POST", "PUT", "DELETE"],
  "parameters": {
    "GET": {
      "query": {
        "id": {
          "type": "string",
          "required": false,
          "description": "Unique initiative identifier"
        },
        "name": {
          "type": "string",
          "required": false,
          "description": "Search by initiative name (partial match)"
        },
        "type": {
          "type": "string",
          "required": false,
          "enum": ["project", "campaign", "program", "event", "research", "pilot"],
          "description": "Filter by initiative type"
        },
        "status": {
          "type": "string",
          "required": false,
          "enum": ["planning", "active", "completed", "on_hold", "cancelled"],
          "description": "Filter by status"
        },
        "organization_id": {
          "type": "string",
          "required": false,
          "description": "Filter by organization ID"
        },
        "cause_id": {
          "type": "string",
          "required": false,
          "description": "Filter by cause ID"
        },
        "location": {
          "type": "string",
          "required": false,
          "description": "Filter by location"
        },
        "start_date": {
          "type": "string",
          "format": "date",
          "required": false,
          "description": "Filter initiatives starting after this date"
        },
        "end_date": {
          "type": "string",
          "format": "date",
          "required": false,
          "description": "Filter initiatives ending before this date"
        },
        "tags": {
          "type": "array",
          "items": "string",
          "required": false
        },
        "limit": {
          "type": "integer",
          "required": false,
          "default": 20,
          "minimum": 1,
          "maximum": 100
        },
        "offset": {
          "type": "integer",
          "required": false,
          "default": 0,
          "minimum": 0
        },
        "sort": {
          "type": "string",
          "required": false,
          "enum": ["name", "start_date", "end_date", "created_at", "updated_at"],
          "default": "name"
        },
        "order": {
          "type": "string",
          "required": false,
          "enum": ["asc", "desc"],
          "default": "asc"
        }
      }
    },
    "POST": {
      "body": {
        "name": {
          "type": "string",
          "required": true,
          "minLength": 1,
          "maxLength": 255
        },
        "type": {
          "type": "string",
          "required": true,
          "enum": ["project", "campaign", "program", "event", "research", "pilot"]
        },
        "description": {
          "type": "string",
          "required": false,
          "maxLength": 10000
        },
        "status": {
          "type": "string",
          "required": false,
          "enum": ["planning", "active", "completed", "on_hold", "cancelled"],
          "default": "planning"
        },
        "organization_id": {
          "type": "string",
          "required": false,
          "description": "ID of the organization leading this initiative"
        },
        "cause_id": {
          "type": "string",
          "required": false,
          "description": "ID of the primary cause this initiative addresses"
        },
        "location": {
          "type": "object",
          "required": false,
          "properties": {
            "city": { "type": "string" },
            "country": { "type": "string" },
            "region": { "type": "string" },
            "coordinates": {
              "type": "object",
              "properties": {
                "lat": { "type": "number" },
                "lng": { "type": "number" }
              }
            }
          }
        },
        "start_date": {
          "type": "string",
          "format": "date",
          "required": false
        },
        "end_date": {
          "type": "string",
          "format": "date",
          "required": false
        },
        "budget": {
          "type": "object",
          "required": false,
          "properties": {
            "amount": { "type": "number" },
            "currency": { "type": "string", "default": "EUR" }
          }
        },
        "target_audience": {
          "type": "string",
          "required": false
        },
        "expected_outcomes": {
          "type": "array",
          "items": "string",
          "required": false
        },
        "tags": {
          "type": "array",
          "items": "string",
          "required": false
        },
        "metadata": {
          "type": "object",
          "required": false
        }
      }
    },
    "PUT": {
      "query": {
        "id": {
          "type": "string",
          "required": true
        }
      },
      "body": {
        "name": { "type": "string", "required": false },
        "description": { "type": "string", "required": false },
        "status": { "type": "string", "required": false },
        "organization_id": { "type": "string", "required": false },
        "cause_id": { "type": "string", "required": false },
        "location": { "type": "object", "required": false },
        "start_date": { "type": "string", "format": "date", "required": false },
        "end_date": { "type": "string", "format": "date", "required": false },
        "budget": { "type": "object", "required": false },
        "target_audience": { "type": "string", "required": false },
        "expected_outcomes": { "type": "array", "items": "string", "required": false },
        "tags": { "type": "array", "items": "string", "required": false },
        "metadata": { "type": "object", "required": false }
      }
    },
    "DELETE": {
      "query": {
        "id": {
          "type": "string",
          "required": true
        }
      }
    }
  },
  "responseSchema": {
    "GET": {
      "success": {
        "type": "object",
        "properties": {
          "data": {
            "type": "array",
            "items": {
              "$ref": "#/definitions/Initiative"
            }
          },
          "pagination": {
            "$ref": "#/definitions/Pagination"
          }
        }
      },
      "definitions": {
        "Initiative": {
          "type": "object",
          "properties": {
            "id": { "type": "string" },
            "name": { "type": "string" },
            "type": { "type": "string" },
            "description": { "type": "string" },
            "status": { "type": "string" },
            "organization_id": { "type": "string" },
            "organization_name": { "type": "string" },
            "cause_id": { "type": "string" },
            "cause_name": { "type": "string" },
            "location": {
              "type": "object",
              "properties": {
                "city": { "type": "string" },
                "country": { "type": "string" },
                "region": { "type": "string" },
                "coordinates": {
                  "type": "object",
                  "properties": {
                    "lat": { "type": "number" },
                    "lng": { "type": "number" }
                  }
                }
              }
            },
            "start_date": { "type": "string", "format": "date" },
            "end_date": { "type": "string", "format": "date" },
            "budget": {
              "type": "object",
              "properties": {
                "amount": { "type": "number" },
                "currency": { "type": "string" }
              }
            },
            "target_audience": { "type": "string" },
            "expected_outcomes": { "type": "array", "items": { "type": "string" } },
            "actual_outcomes": { "type": "array", "items": { "type": "string" } },
            "tags": { "type": "array", "items": { "type": "string" } },
            "metadata": { "type": "object" },
            "participants_count": { "type": "integer" },
            "related_patterns": { "type": "array", "items": { "type": "string" } },
            "created_at": { "type": "string", "format": "date-time" },
            "updated_at": { "type": "string", "format": "date-time" }
          }
        },
        "Pagination": {
          "type": "object",
          "properties": {
            "total": { "type": "integer" },
            "limit": { "type": "integer" },
            "offset": { "type": "integer" },
            "has_more": { "type": "boolean" }
          }
        }
      }
    },
    "POST": {
      "success": {
        "$ref": "#/definitions/Initiative"
      }
    },
    "PUT": {
      "success": {
        "$ref": "#/definitions/Initiative"
      }
    },
    "DELETE": {
      "success": {
        "type": "object",
        "properties": {
          "message": { "type": "string" },
          "id": { "type": "string" }
        }
      }
    }
  },
  "examples": {
    "request": {
      "GET": {
        "list_initiatives": "?limit=20&sort=start_date&order=desc",
        "filter_by_status": "?status=active&limit=20",
        "filter_by_type": "?type=campaign&status=active",
        "filter_by_organization": "?organization_id=org_abc123",
        "filter_by_cause": "?cause_id=cause_xyz789",
        "filter_by_date_range": "?start_date=2024-01-01&end_date=2024-12-31",
        "filter_by_location": "?location=Berlin"
      },
      "POST": {
        "create_initiative": {
          "name": "Urban Gardening Project",
          "type": "project",
          "description": "Community-based urban gardening initiative to promote local food production and green spaces",
          "status": "planning",
          "organization_id": "org_abc123",
          "cause_id": "cause_xyz789",
          "location": {
            "city": "Berlin",
            "country": "Germany",
            "coordinates": {
              "lat": 52.52,
              "lng": 13.405
            }
          },
          "start_date": "2024-06-01",
          "end_date": "2024-10-31",
          "budget": {
            "amount": 50000,
            "currency": "EUR"
          },
          "target_audience": "Urban residents, families, schools",
          "expected_outcomes": [
            "Create 10 community gardens",
            "Engage 500+ participants",
            "Produce 2000kg of local food"
          ],
          "tags": ["urban", "gardening", "community", "sustainability", "food"]
        }
      },
      "PUT": {
        "update_initiative": {
          "id": "init_def456",
          "status": "active",
          "actual_outcomes": [
            "Created 8 community gardens",
            "Engaged 450 participants"
          ]
        }
      }
    },
    "response": {
      "GET": {
        "success": {
          "data": [
            {
              "id": "init_def456",
              "name": "Urban Gardening Project",
              "type": "project",
              "description": "Community-based urban gardening initiative to promote local food production and green spaces",
              "status": "active",
              "organization_id": "org_abc123",
              "organization_name": "Green Future Initiative",
              "cause_id": "cause_xyz789",
              "cause_name": "Sustainable Agriculture",
              "location": {
                "city": "Berlin",
                "country": "Germany",
                "region": "Europe",
                "coordinates": {
                  "lat": 52.52,
                  "lng": 13.405
                }
              },
              "start_date": "2024-06-01",
              "end_date": "2024-10-31",
              "budget": {
                "amount": 50000,
                "currency": "EUR"
              },
              "target_audience": "Urban residents, families, schools",
              "expected_outcomes": [
                "Create 10 community gardens",
                "Engage 500+ participants",
                "Produce 2000kg of local food"
              ],
              "actual_outcomes": [],
              "tags": ["urban", "gardening", "community", "sustainability", "food"],
              "metadata": {},
              "participants_count": 45,
              "related_patterns": ["pattern_001", "pattern_002"],
              "created_at": "2024-05-15T09:00:00Z",
              "updated_at": "2024-06-01T10:30:00Z"
            }
          ],
          "pagination": {
            "total": 89,
            "limit": 20,
            "offset": 0,
            "has_more": true
          }
        }
      },
      "POST": {
        "success": {
          "id": "init_ghi789",
          "name": "Urban Gardening Project",
          "type": "project",
          "status": "planning",
          "description": "Community-based urban gardening initiative",
          "created_at": "2024-06-20T15:00:00Z",
          "updated_at": "2024-06-20T15:00:00Z"
        }
      },
      "DELETE": {
        "success": {
          "message": "Initiative deleted successfully",
          "id": "init_def456"
        }
      }
    }
  },
  "errorCodes": {
    "400": {
      "code": "BAD_REQUEST",
      "description": "Invalid request parameters or malformed request body"
    },
    "401": {
      "code": "UNAUTHORIZED",
      "description": "Authentication required"
    },
    "403": {
      "code": "FORBIDDEN",
      "description": "Insufficient permissions"
    },
    "404": {
      "code": "NOT_FOUND",
      "description": "Initiative not found"
    },
    "409": {
      "code": "CONFLICT",
      "description": "Initiative with this name already exists"
    },
    "422": {
      "code": "UNPROCESSABLE_ENTITY",
      "description": "Validation error"
    },
    "429": {
      "code": "RATE_LIMIT_EXCEEDED",
      "description": "Too many requests"
    },
    "500": {
      "code": "INTERNAL_SERVER_ERROR",
      "description": "Server error"
    }
  }
}
